/home/shivaspk_siva/todogcpds/src/main/java/com/ce/Todo.java
/home/shivaspk_siva/todogcpds/src/main/java/com/ce/TodoRepository.java
/home/shivaspk_siva/todogcpds/src/main/java/com/ce/TodogcpApplication.java
